STAT 479 Lecture 1 – STAT479
…
raw_box |> dplyr::filter(game_date == "2011-06-12") |>
  dplyr::select(athlete_display_name, 
         field_goals_made, field_goals_attempted)

── ESPN NBA Player Boxscores from hoopR data repository ───────── hoopR 2.1.0 ──

ℹ Data updated: 2025-07-31 06:39:25 CDT

# A tibble: 30 × 3
   athlete_display_name field_goals_made field_goals_attempted
   <chr>                           <int>                 <int>
 1 Dirk Nowitzki                       9                    27
 2 Tyson Chandler                      2                     4
 3 Jason Kidd                          2                     4
 4 Shawn Marion                        4                    10
 5 J.J. Barea                          7                    12
 6 Brian Cardinal                      1                     1
 7 Caron Butler                       NA                    NA
 8 Ian Mahinmi                         2                     3
 9 Rodrigue Beaubois                  NA                    NA
10 DeShawn Stevenson                   3                     5
# ℹ 20 more rows
…
