Lecture 2: Expected Value-based Evaluation – STAT479
…
[1] 2.896323

During Euro 2022, Beth Mead scored a total of 6 goals, which was about 2.9 goals more than what the StatsBomb XG model expected, based on the contexts in which she attempted shots. We can repeat this calculation – summing over the difference between shot outcome \(Y\) and \(\textrm{XG}\) — for all players in EURO 2022 to find the players that most over-performed and most under-performed the model expectations.

goe <- 
  euro2022_shots %>%
  mutate(diff = Y - shot.statsbomb_xg) %>%
  group_by(player.name) %>%
  summarise(GOE = sum(diff),
            n = n()) %>%
  arrange(desc(GOE))

goe

# A tibble: 200 × 3
   player.name               GOE     n
   <chr>                   <dbl> <int>
 1 Alexandra Popp          3.34     16
 2 Bethany Mead            2.90     15
 3 Alessia Russo           1.79     12
 4 Francesca Kirby         1.79      5
 5 Lina Magull             1.70     14
 6 Ingrid Filippa Angeldal 1.37     10
 7 Romée Leuchter          1.19      2
 8 Hanna Ulrika Bennison   0.952     1
 9 Nicole Anyomi           0.896     1
10 Julie Blakstad          0.879     1
# ℹ 190 more rows
…
