Lecture 1: Boxscore Metrics – STAT479
…
From totals to percentages

One way to define the best shooter is to identify the player who made the most shots. We can identify this by arranging our data table in descending order.

season_box %>%
  arrange(desc(FGM))

# A tibble: 11,808 × 10
   Player             season minutes n_games   FGM   FGA   TPM   TPA   FTM   FTA
   <chr>               <int>   <dbl>   <int> <int> <int> <int> <int> <int> <int>
 1 James Harden         2015    3640      99   878  1780   256   674   878  1002
 2 James Harden         2017    3391      93   847  1760   298   880   847   996
 3 Kevin Durant         2014    3967     101   839  2137   241   633   839   972
 4 James Harden         2019    3320      90   836  2186   430  1178   836   956
 5 Kevin Durant         2010    3472      88   810  1791   138   386   810   902
 6 James Harden         2020    2943      81   792  1751   341   969   792   920
 7 Dwyane Wade          2006    3617      92   783  1736    24   106   783   990
 8 Kobe Bryant          2008    4057     103   780  2153   182   521   780   936
 9 Shai Gilgeous-Ale…   2025    3426     100   777  2151   198   549   777   872
10 Russell Westbrook    2017    3017      87   768  2119   220   645   768   912
# ℹ 11,798 more rows

To make this more precise, we can compute the field goal percentage (and similarly for three pointers and free throws).

season_box <-
  season_box %>%
  mutate(
    FGP = ifelse(FGA > 0, FGM/FGA, NA_real_),
    TPP = ifelse(TPA > 0, TPM/TPA, NA_real_),
    FTP = ifelse(FTA > 0, FTM/FTA, NA_real_))

season_box %>% 
  arrange(desc(FGP)) %>%
  select(Player, season, FGP)

# A tibble: 11,766 × 3
   Player             season   FGP
   <chr>               <int> <dbl>
 1 Alvin Williams       2007     1
 2 Andris Biedrins      2014     1
 3 Chandler Hutchison   2022     1
 4 Chuck Hayes          2016     1
 5 Daishen Nix          2025     1
 6 Dajuan Wagner        2007     1
 7 Ike Diogu            2012     1
 8 Jared Harper         2021     1
 9 Jarnell Stokes       2017     1
10 Jelani McCoy         2008     1
# ℹ 11,756 more rows

Sorting the players by their \(\textrm{FGP},\) we find that several players made 100% of their field goals. But very few of these players are immediately recognizable — and, indeed, none of them have been in the MVP conversation, despite the fact that they made all their shots!

To understand what’s going on, let’s take a look at the number of attempts and the number of games played.

season_box %>% 
  arrange(desc(FGP)) %>%
  select(Player, season, FGP, n_games, FGA)

# A tibble: 11,766 × 5
   Player             season   FGP n_games   FGA
   <chr>               <int> <dbl>   <int> <int>
 1 Alvin Williams       2007     1       2     2
 2 Andris Biedrins      2014     1       6     1
 3 Chandler Hutchison   2022     1       6     2
 4 Chuck Hayes          2016     1       2     2
 5 Daishen Nix          2025     1       3     1
 6 Dajuan Wagner        2007     1       1     1
 7 Ike Diogu            2012     1       2     2
 8 Jared Harper         2021     1       8     3
 9 Jarnell Stokes       2017     1       2     1
10 Jelani McCoy         2008     1       6     1
# ℹ 11,756 more rows
Taking a closer look, we see that the players with the exceptionally high field goal percentages took very few shots. To claim that any of these player-seasons are among the best ever would strain credulity. So, in order to determine the best shooting performance, we will need to limit our data to players who took a minimum number of shots.

Setting thresholds

The interpretation of our downstream results can be quite sensitive to the choice of threshold. If we set a very low threshold, our analysis will involve many players, including those with very limited playing time. Since we do not believe these players would be among the best shooters — otherwise, they would have received more playing time! — we may instead consider a larger, more restrictive threshold (e.g. \(\textrm{FGM} > 1500\)). If the threshold is too high, however, we may limit our analysis to just a small handful of players and risk overlooking impressive performances.

Because there is no single correct way to set a threshold, it is vitally important that you clearly explain and justify whatever choice you make.

For simplicity, we will restrict our attention to those players who attempted at least 100 field goals.

season_box %>%
  filter(FGA >= 100) %>%
  arrange(desc(FGP))

# A tibble: 8,847 × 13
   Player       season   FGM   FGA   TPM   TPA   FTM   FTA minutes n_games   FGP
   <chr>         <int> <int> <int> <int> <int> <int> <int>   <dbl>   <int> <dbl>
 1 Chris Ander…   2010   164   251     0     3   164   236    1693      76 0.653
 2 Tyler Hansb…   2014   126   196     0     2   126   185     981      64 0.643
 3 Corey Magge…   2007   519   808    13    65   519   633    2295      75 0.642
 4 Jarron Coll…   2004   188   295     0     1   188   262    1732      81 0.637
 5 Chris Ander…   2011    86   137     0     1    86   135     728      45 0.628
 6 Shelden Wil…   2010    75   121     0     1    75    98     597      54 0.620
 7 Tyson Chand…   2012   217   355     0     2   217   315    2063      62 0.611
 8 Tyson Chand…   2010   115   190     0     0   115   157    1165      51 0.605
 9 Leon Powe      2007   106   177     0     2   106   144     723      59 0.599
10 Dwight Powe…   2024    63   106     1     3    63    89     836      63 0.594
# ℹ 8,837 more rows
# ℹ 2 more variables: TPP <dbl>, FTP <dbl>

The vast majority of these players are centers and forwards. Many of them do not attempt three point shots!

What if we restrict our attention players who took at least 100 shots over the course of a season and took at least 50 three point shots?

season_box %>%
  filter(FGA >= 100 & TPA >= 50) %>%
  arrange(desc(FGP), desc(TPP)) %>%
  select(Player, season, FGP, TPP, FGA, TPA, n_games)

# A tibble: 5,985 × 7
   Player           season   FGP   TPP   FGA   TPA n_games
   <chr>             <int> <dbl> <dbl> <int> <int>   <int>
 1 Corey Maggette     2007 0.642 0.2     808    65      75
 2 Jimmy Butler III   2020 0.576 0.244   760   119      59
 3 Corey Maggette     2005 0.571 0.304   986   168      66
 4 Corey Maggette     2006 0.565 0.338   375    71      32
 5 Kevin Martin       2009 0.564 0.415   811   277      51
 6 Corey Maggette     2008 0.553 0.384  1000   203      70
 7 Jimmy Butler III   2025 0.553 0.308   597   104      55
 8 Kevin Martin       2008 0.549 0.402   914   266      61
 9 Corey Maggette     2009 0.539 0.253   634    95      51
10 Danilo Gallinari   2016 0.536 0.364   700   239      53
# ℹ 5,975 more rows

More nuanced metrics

Effective Field Goal Percentage

One criticism of FGP is that it treats 2-point shots the same as 3-point shots. As a result, the league leader in FGP is usually a center whose shots mostly come from near the rim. Effective Field Goal Percentage (eFGP) adjusts FGP to account for the fact that a made 3-point shots is worth 50% more than a made 2-point shot. The formula for eFGP is \[
\textrm{eFGP} = \frac{\textrm{FGM} + 0.5 \times \textrm{TPM}}{\textrm{FGA}}
\]

We can create a column for in our data table using mutate

season_box 

# A tibble: 11,766 × 13
   Player      season   FGM   FGA   TPM   TPA   FTM   FTA minutes n_games    FGP
   <chr>        <int> <int> <int> <int> <int> <int> <int>   <dbl>   <int>  <dbl>
 1 A.J. Guyton   2002    22   244    46   123    22    27     607      45 0.0902
 2 A.J. Guyton   2003     0     4     0     1     0     0       9       2 0     
 3 A.J. Lawson   2023     2    44    10    25     2     8     109      15 0.0455
 4 A.J. Lawson   2024    15   121    13    50    15    23     314      42 0.124 
 5 A.J. Lawson   2025    43   190    33   101    43    63     485      26 0.226 
 6 A.J. Price    2010    60   354    60   174    60    75     863      56 0.169 
 7 A.J. Price    2011    54   320    41   149    54    81     799      50 0.169 
 8 A.J. Price    2012    28   174    26    88    28    35     567      43 0.161 
 9 A.J. Price    2013    49   413    70   200    49    62    1276      57 0.119 
10 A.J. Price    2014     0    46     6    22     0     2      99      28 0     
# ℹ 11,756 more rows
# ℹ 2 more variables: TPP <dbl>, FTP <dbl>
…
