Lecture 1: Boxscore Metrics – STAT479
…
For instance, here are the box score statistics for several players from a single game in 2011.

raw_box |>
  filter(game_date == "2011-06-12") |>
  select(athlete_display_name, 
         field_goals_made, field_goals_attempted,
         three_point_field_goals_made, three_point_field_goals_attempted,
         free_throws_made, free_throws_attempted)

── ESPN NBA Player Boxscores from hoopR data repository ───────── hoopR 2.1.0 ──

ℹ Data updated: 2025-07-31 06:39:25 CDT

# A tibble: 30 × 7
   athlete_display_name field_goals_made field_goals_attempted
   <chr>                           <int>                 <int>
 1 Dirk Nowitzki                       9                    27
 2 Tyson Chandler                      2                     4
 3 Jason Kidd                          2                     4
 4 Shawn Marion                        4                    10
 5 J.J. Barea                          7                    12
 6 Brian Cardinal                      1                     1
 7 Caron Butler                       NA                    NA
 8 Ian Mahinmi                         2                     3
 9 Rodrigue Beaubois                  NA                    NA
10 DeShawn Stevenson                   3                     5
# ℹ 20 more rows
# ℹ 4 more variables: three_point_field_goals_made <int>,
#   three_point_field_goals_attempted <int>, free_throws_made <int>,
#   free_throws_attempted <int>
…
From totals to percentages

In order to determine which player-season was the best in terms of shooting, we need to first define “best”. Perhaps the simplest definition is to find the player-season with the most made shots. We can identify this player-season by sorting the data in season_box by FGM in descending order with the arrange() function

season_box %>%
  arrange(desc(FGM))

# A tibble: 11,920 × 10
   Player             season   FGM   FGA   TPM   TPA   FTM   FTA minutes n_games
   <chr>               <int> <dbl> <dbl> <dbl> <dbl> <dbl> <dbl>   <dbl>   <int>
 1 Kobe Bryant          2006   949  2109   179   506   675   788    3184      78
 2 LeBron James         2006   875  1823   127   379   601   814    3361      82
 3 Kobe Bryant          2003   868  1924   124   324   601   713    3401      82
 4 Shai Gilgeous-Ale…   2025   868  1680   165   444   604   673    2633      77
 5 LeBron James         2018   857  1580   149   406   388   531    3024      82
 6 Dwyane Wade          2009   854  1739    88   278   590   771    3048      82
 7 Kevin Durant         2014   849  1688   192   491   703   805    3118      81
 8 James Harden         2019   843  1909   378  1028   754   858    2870      78
 9 Giannis Antetokou…   2024   837  1369    34   124   514   782    2573      73
10 Tracy McGrady        2003   829  1813   173   448   576   726    2954      75
# ℹ 11,910 more rows
…
This motivates us to refine our definition of “best” by focusing on the percentage of field goals made rather than total number of field goals made.

season_box <-
  season_box |>
1  mutate(FGP = ifelse(FGA > 0, FGM/FGA, NA_real_))
season_box |> 
  arrange(desc(FGP)) |>
  select(Player, season, FGP)

1

For players who attempted no field goals (i.e., FGA = 0), their field goal percentage is undefined.

# A tibble: 11,920 × 3
   Player           season   FGP
   <chr>             <int> <dbl>
 1 Ahmad Caver        2022     1
 2 Alondes Williams   2025     1
 3 Andris Biedrins    2014     1
 4 Anthony Brown      2018     1
 5 Braxton Key        2023     1
 6 Chris Silva        2023     1
 7 Dajuan Wagner      2007     1
 8 DeAndre Liggins    2014     1
 9 Donnell Harvey     2005     1
10 Eddy Curry         2009     1
# ℹ 11,910 more rows

Sorting the players by their \(\textrm{FGP},\) we find that several players made 100% of their field goals. But very few of these players are immediately recognizable — and, indeed, none of them have been in the MVP conversation, despite the fact that they made all their shots!

To understand what’s going on, let’s take a look at the number of attempts.

season_box %>% 
  arrange(desc(FGP)) %>%
  select(Player, season, FGP, FGA)

# A tibble: 11,920 × 4
   Player           season   FGP   FGA
   <chr>             <int> <dbl> <dbl>
 1 Ahmad Caver        2022     1     1
 2 Alondes Williams   2025     1     2
 3 Andris Biedrins    2014     1     1
 4 Anthony Brown      2018     1     1
 5 Braxton Key        2023     1     1
 6 Chris Silva        2023     1     1
 7 Dajuan Wagner      2007     1     1
 8 DeAndre Liggins    2014     1     1
 9 Donnell Harvey     2005     1     2
10 Eddy Curry         2009     1     2
# ℹ 11,910 more rows

Given the very low number of shots attempted in any of these player-season, claiming that any of these player-seasons are among the best ever would strain credulity! So, in order to determine the best shooting performance, we will need to threshold our data to players who took a minimum number of shots. For simplicity, let’s focus our attention on those players who attempted at least 400 field goals in a season (i.e., they attempted, on average, at least 5 shots per game).

season_box |>
  filter(FGA >= 400) |>
  arrange(desc(FGP)) |>
  select(Player, season, FGP,FGA)

# A tibble: 4,987 × 4
   Player         season   FGP   FGA
   <chr>           <int> <dbl> <dbl>
 1 Daniel Gafford   2024 0.725   480
 2 Walker Kessler   2023 0.720   414
 3 DeAndre Jordan   2017 0.714   577
 4 Rudy Gobert      2022 0.713   508
 5 DeAndre Jordan   2015 0.710   534
 6 Jarrett Allen    2025 0.706   640
 7 Nic Claxton      2023 0.705   587
 8 DeAndre Jordan   2016 0.703   508
 9 Daniel Gafford   2025 0.702   403
10 Daniel Gafford   2022 0.693   411
# ℹ 4,977 more rows
…
A major limitation of FGP is that it treats 2-point shots the same as 3-point shots. As a result, the league-leader in FGP every season is usually a center whose shots mostly come from near the rim. Effective Field Goal Percentage (eFGP) adjusts FGP to account for the fact that a made 3-point shots is worth 50% more than a made 2-point shot. The formula for eFGP is \[
\textrm{eFGP} = \frac{\textrm{FGM} + 0.5 \times \textrm{TPM}}{\textrm{FGA}}
\]

season_box <-
  season_box |>
  mutate(
    TPP = ifelse(TPA > 0, TPM/TPA,NA_real_),
    eFGP = (FGM + 0.5 * TPM)/FGA) 
season_box %>%
  filter(FGA >= 400) %>%
  arrange(desc(eFGP), desc(FGP)) %>%
  select(Player, season, eFGP, FGP, TPP, TPA, n_games)

# A tibble: 4,987 × 7
   Player         season  eFGP   FGP    TPP   TPA n_games
   <chr>           <int> <dbl> <dbl>  <dbl> <dbl>   <int>
 1 Daniel Gafford   2024 0.725 0.725 NA         0      74
 2 Walker Kessler   2023 0.721 0.720  0.333     3      74
 3 DeAndre Jordan   2017 0.714 0.714  0         2      81
 4 Rudy Gobert      2022 0.713 0.713  0         4      66
 5 DeAndre Jordan   2015 0.711 0.710  0.25      4      82
 6 Jarrett Allen    2025 0.706 0.706  0         5      82
 7 Nic Claxton      2023 0.705 0.705  0         2      76
 8 DeAndre Jordan   2016 0.703 0.703  0         1      77
 9 Daniel Gafford   2025 0.702 0.702 NA         0      57
10 Daniel Gafford   2022 0.693 0.693  0         1      72
# ℹ 4,977 more rows

We see again that some of the best seasons, according to eFGP, were from centers, many of whom attempt few few three point shots. When filter out players who took at least 100 three point shots, we start to see other positions in the top-10.

season_box %>%
  filter(FGA >= 400 & TPA >= 100) %>%
  arrange(desc(eFGP), desc(FGP)) %>%
  select(Player, season, eFGP, FGP, TPP, TPA, n_games)

# A tibble: 3,658 × 7
   Player             season  eFGP   FGP   TPP   TPA n_games
   <chr>               <int> <dbl> <dbl> <dbl> <dbl>   <int>
 1 Kyle Korver          2015 0.671 0.487 0.492   449      75
 2 Duncan Robinson      2020 0.667 0.470 0.446   606      73
 3 Obi Toppin           2024 0.660 0.571 0.404   260      83
 4 Nikola Jokic         2023 0.660 0.632 0.383   149      69
 5 Joe Harris           2021 0.655 0.502 0.478   427      69
 6 Joe Ingles           2021 0.652 0.489 0.451   406      67
 7 Grayson Allen        2024 0.649 0.499 0.461   445      75
 8 Michael Porter Jr.   2021 0.646 0.541 0.447   374      61
 9 Mikal Bridges        2021 0.643 0.543 0.425   315      72
10 Al Horford           2024 0.640 0.511 0.419   258      65
# ℹ 3,648 more rows
…
Both FGP and eFGP totally ignore free throws. Intuitively, we should expect the best shooter to be proficient at making two-and three-point shots as well as their free throws. One metric that accounts for all field goals, three pointers, and free throws is true shooting percentage (\(\textrm{TSP}\)), whose formula is given by \[
\textrm{TSP} = \frac{\textrm{PTS}}{2 \times \left(\textrm{FGA} + (0.44 \times \textrm{FTA})\right)},
\] where \(\textrm{PTS} =  \textrm{FTM} + 2 \times \textrm{FGM} + \textrm{TPM}\) is the total number of points scored.

season_box <-
  season_box |>
  mutate(PTS = FTM + 2 * FGM + TPM,
         TSP = PTS/(2 * (FGA + 0.44 * FTA)))
season_box %>%
  filter(FGA >= 400 & TPA >= 100) %>%
  arrange(desc(TSP), desc(eFGP), desc(FGP)) %>%
  select(Player, season, TSP, eFGP, FGP, TPP, n_games)

# A tibble: 3,658 × 7
   Player          season   TSP  eFGP   FGP   TPP n_games
   <chr>            <int> <dbl> <dbl> <dbl> <dbl>   <int>
 1 Nikola Jokic      2023 0.701 0.660 0.632 0.383      69
 2 Kyle Korver       2015 0.699 0.671 0.487 0.492      75
 3 Austin Reaves     2023 0.687 0.616 0.529 0.398      64
 4 Duncan Robinson   2020 0.684 0.667 0.470 0.446      73
 5 Dwight Powell     2019 0.682 0.637 0.597 0.307      77
 6 Grayson Allen     2024 0.679 0.649 0.499 0.461      75
 7 Kevin Durant      2023 0.677 0.614 0.560 0.404      47
 8 Moritz Wagner     2024 0.676 0.636 0.601 0.330      80
 9 Stephen Curry     2018 0.675 0.618 0.495 0.423      51
10 Obi Toppin        2024 0.675 0.660 0.571 0.404      83
# ℹ 3,648 more rows
…
