Lecture 2: Expected Goals – STAT479
…
Figure 1: Screenshot of the competitions covered in the public data

Each competition and season have unique id and we can also see whether it was a men’s or women’s competition. To see which matches from selected competitions have publicly available data, we can pass the corresponding rows of this table to the function StatsBombR::FreeMatches(). For instance, here are the first few rows and some selected columns from the matches from EURO 2022. StatsBomb graciously provided data for all the matches in the tournament. Here is a table of matches from the 2022 EURO Competition; StatsBomb graciously provided data for all matches from the tournament, which can be obtained using the code below.

StatsBombR::FreeCompetitions() |>
  dplyr::filter(competition_id == 53 & season_id == 106) |> 
  StatsBombR::FreeMatches() |>
  dplyr::select(match_id, home_team.home_team_name, away_team.away_team_name, home_score, away_score)

[1] "Whilst we are keen to share data and facilitate research, we also urge you to be responsible with the data. Please credit StatsBomb as your data source when using the data and visit https://statsbomb.com/media-pack/ to obtain our logos for public use."
[1] "Whilst we are keen to share data and facilitate research, we also urge you to be responsible with the data. Please credit StatsBomb as your data source when using the data and visit https://statsbomb.com/media-pack/ to obtain our logos for public use."

# A tibble: 31 × 5
   match_id home_team.home_team_n…¹ away_team.away_team_…² home_score away_score
      <int> <chr>                   <chr>                       <int>      <int>
 1  3835331 Sweden Women's          Switzerland Women's             2          1
 2  3835324 Netherlands Women's     Sweden Women's                  1          1
 3  3844384 England Women's         Spain Women's                   2          1
 4  3847567 England Women's         Germany Women's                 2          1
 5  3845506 England Women's         Sweden Women's                  4          0
 6  3835335 Northern Ireland        England Women's                 0          5
 7  3835323 Portugal Women's        Switzerland Women's             2          2
 8  3835325 France Women's          Italy Women's                   5          1
 9  3835320 Norway Women's          Northern Ireland                4          1
10  3845507 Germany Women's         France Women's                  2          1
# ℹ 21 more rows
# ℹ abbreviated names: ¹​home_team.home_team_name, ²​away_team.away_team_name
…
sum(mead_shots$Y - mead_shots$shot.statsbomb_xg)

[1] 2.896323

We conclude that during EURO 2022, Beth Mead scored 2.9 more goals than what StatsBomb’s XG model expected based on the contexts in which she attempted shots. We can repeat this calculation — summing over the difference between shot outcome \(Y\) and \(\textrm{XG}\) — for all players in EURO 2022 to find the players that most over-performed and most under-performed the model expectations.

goe <- 
  euro2022_shots |>
  dplyr::mutate(diff = Y - shot.statsbomb_xg) |>
  dplyr::group_by(player.name) |>
  dplyr::summarise(GOE = sum(diff),n = dplyr::n()) |>
  dplyr::arrange(dplyr::desc(GOE))
goe

# A tibble: 200 × 3
   player.name               GOE     n
   <chr>                   <dbl> <int>
 1 Alexandra Popp          3.34     16
 2 Bethany Mead            2.90     15
 3 Alessia Russo           1.79     12
 4 Francesca Kirby         1.79      5
 5 Lina Magull             1.70     14
 6 Ingrid Filippa Angeldal 1.37     10
 7 Romée Leuchter          1.19      2
 8 Hanna Ulrika Bennison   0.952     1
 9 Nicole Anyomi           0.896     1
10 Julie Blakstad          0.879     1
# ℹ 190 more rows
…
