Lecture 6: Run Expectancy – STAT479
…
Based on the description column, we see that the first pitch of at-bat 62 was a foul ball and the second pitch was hit into play. When we look at the corresponding row (row 6) of the table, we see that that Dodgers’ pre-pitch score was 1 (bat_score = 1) and that they scored 1 run as a result of the hit (post_bat_score = 2). Reassuringly, the difference between the value of post_bat_score in row 6 (the last row for at-bat 62) and the value of bat_score in row 5 (the first row for at-bat 62) is 1. We can similarly verify our procedure works in at-bat 61: the fourth value of post_bat_score and the first value of bat_score are equal and the Dodgers did not score in this at-bat.

We can apply our procedure to the entirety of the Dodgers’ half-inning

dodgers_inning <-
  dodgers_inning |>
  dplyr::group_by(at_bat_number) |>
  dplyr::arrange(pitch_number) |>
  dplyr::mutate(RunsScored = dplyr::last(post_bat_score) - dplyr::first(bat_score)) |>
  dplyr::ungroup() |>
  dplyr::arrange(at_bat_number, pitch_number)
dodgers_inning |> dplyr::select(at_bat_number, pitch_number, bat_score, description, post_bat_score, RunsScored)

# A tibble: 25 × 6
   at_bat_number pitch_number bat_score description   post_bat_score RunsScored
           <int>        <int>     <dbl> <chr>                  <dbl>      <dbl>
 1            59            1         1 called_strike              1          0
 2            59            2         1 ball                       1          0
 3            59            3         1 ball                       1          0
 4            59            4         1 foul                       1          0
 5            59            6         1 blocked_ball               1          0
 6            60            1         1 ball                       1          0
 7            60            2         1 foul_tip                   1          0
 8            60            3         1 hit_into_play              1          0
 9            61            1         1 ball                       1          0
10            61            2         1 ball                       1          0
# ℹ 15 more rows
…
re24 <-
  statcast2024 |> 
  dplyr::filter(pitch_number == 1) |>
  dplyr::select(game_pk, at_bat_number, batter) |>
  dplyr::inner_join(y = runValue2024, by = c("game_pk", "at_bat_number")) |>
  dplyr::group_by(batter) |>
  dplyr::summarise(RE24 = sum(RunValue),N = dplyr::n()) |>
  dplyr::inner_join(y = tmp_lookup, by = "batter") |>
  dplyr::select(Name, RE24, N) |>
  dplyr::arrange(dplyr::desc(RE24))
re24

# A tibble: 649 × 3
   Name               RE24     N
   <chr>             <dbl> <int>
 1 Aaron Judge        89.0   675
 2 Juan Soto          74.4   693
 3 Shohei Ohtani      73.1   708
 4 Bobby Witt         65.9   694
 5 Brent Rooker       47.9   599
 6 Vladimir Guerrero  45.0   671
 7 Ketel Marte        41.2   562
 8 Kyle Schwarber     40.9   672
 9 Joc Pederson       39.2   433
10 Jose Ramirez       39.1   657
# ℹ 639 more rows
…
