Lecture 3: Estimating the Expected Value of a Game State – STAT479
…
Now that we have the run values for every at-bat, we can compute the total run value produced by every batter across the season.

re24 <- 
  atbat2024 %>%
  group_by(batter) %>%
  summarise(RE24 = sum(RunValue),
            N = n()) %>%
  rename(key_mlbam = batter) %>%
  inner_join(y = player_lookup) %>%
  select(Name, RE24, N) %>%
  arrange(desc(RE24))

re24

# A tibble: 649 × 3
   Name               RE24     N
   <chr>             <dbl> <int>
 1 Aaron Judge        87.1   675
 2 Juan Soto          71.9   693
 3 Shohei Ohtani      71.9   708
 4 Bobby Witt         64.4   694
 5 Brent Rooker       46.6   599
 6 Vladimir Guerrero  41.8   671
 7 Kyle Schwarber     38.5   672
 8 Ketel Marte        38.4   562
 9 Joc Pederson       36.9   433
10 José Ramírez       36.0   657
# ℹ 639 more rows
…
